{
  "count": 8,
  "next": "https://pokeapi.co/api/v2/generation?offset=1&limit=1",
  "previous": null,
  "results": [
    {
      "name": "generation-i",
      "url": "https://pokeapi.co/api/v2/generation/1/"
    }
  ]
}